…
** Note: If you wish to use predict() you ust specify the data to be used for prediction. For our example, this would we have

predict(lm_simple, new_data = diamonds)

## # A tibble: 53,940 × 1
##      .pred
##      <dbl>
##  1 -472.  
##  2 -628.  
##  3 -472.  
##  4   -7.00
##  5  148.  
##  6 -395.  
##  7 -395.  
##  8 -240.  
##  9 -550.  
## 10 -472.  
## # … with 53,930 more rows
…
